{
	"info": {
		"_postman_id": "806870cf-773d-45fb-a211-f30f1ba32035",
		"name": "B282-s32-activity",
		"schema": "https://schema.getpostman.com/json/collection/v2.1.0/collection.json",
		"_exporter_id": "26214626"
	},
	"item": [
		{
			"name": "Welcome",
			"request": {
				"method": "GET",
				"header": [],
				"url": {
					"raw": "http://localhost:4000/",
					"protocol": "http",
					"host": [
						"localhost"
					],
					"port": "4000",
					"path": [
						""
					]
				}
			},
			"response": []
		},
		{
			"name": "GET profile",
			"request": {
				"method": "GET",
				"header": [],
				"url": {
					"raw": "http://localhost:4000/profile",
					"protocol": "http",
					"host": [
						"localhost"
					],
					"port": "4000",
					"path": [
						"profile"
					]
				}
			},
			"response": []
		},
		{
			"name": "GET courses",
			"request": {
				"method": "GET",
				"header": [],
				"url": {
					"raw": "http://localhost:4000/courses",
					"protocol": "http",
					"host": [
						"localhost"
					],
					"port": "4000",
					"path": [
						"courses"
					]
				}
			},
			"response": []
		},
		{
			"name": "POST addCourses",
			"request": {
				"method": "POST",
				"header": [],
				"url": {
					"raw": "http://localhost:4000/addcourse",
					"protocol": "http",
					"host": [
						"localhost"
					],
					"port": "4000",
					"path": [
						"addcourse"
					]
				}
			},
			"response": []
		},
		{
			"name": "PUT updateCourse",
			"request": {
				"method": "PUT",
				"header": [],
				"url": {
					"raw": "http://localhost:4000/updatecourse",
					"protocol": "http",
					"host": [
						"localhost"
					],
					"port": "4000",
					"path": [
						"updatecourse"
					]
				}
			},
			"response": []
		},
		{
			"name": "DELETE archiveCourse",
			"request": {
				"method": "DELETE",
				"header": [],
				"url": {
					"raw": "http://localhost:4000/archivecourses",
					"protocol": "http",
					"host": [
						"localhost"
					],
					"port": "4000",
					"path": [
						"archivecourses"
					]
				}
			},
			"response": []
		}
	]
}