[
	{
		"id": 1,
		"orderId": 1,
		"productId": 1,
		"quantity": 2,
		"price": 10.99,
		"subTotal": 21.98
	},
	{
		"id": 2,
		"orderId": 2,
		"productId": 1,
		"quantity": 10,
		"price": 10.99,
		"subTotal": 1099
	},
];
